Sentence #1 (9 tokens):
#*Stanford #University is located in California.
[Text=# CharacterOffsetBegin=0 CharacterOffsetEnd=1 PartOfSpeech=# Lemma=# NamedEntityTag=O] [Text=* CharacterOffsetBegin=1 CharacterOffsetEnd=2 PartOfSpeech=SYM Lemma=* NamedEntityTag=O] [Text=Stanford CharacterOffsetBegin=2 CharacterOffsetEnd=10 PartOfSpeech=NNP Lemma=Stanford NamedEntityTag=O] [Text=#University CharacterOffsetBegin=11 CharacterOffsetEnd=22 PartOfSpeech=NNP Lemma=#University NamedEntityTag=O] [Text=is CharacterOffsetBegin=23 CharacterOffsetEnd=25 PartOfSpeech=VBZ Lemma=be NamedEntityTag=O] [Text=located CharacterOffsetBegin=26 CharacterOffsetEnd=33 PartOfSpeech=JJ Lemma=located NamedEntityTag=O] [Text=in CharacterOffsetBegin=34 CharacterOffsetEnd=36 PartOfSpeech=IN Lemma=in NamedEntityTag=O] [Text=California CharacterOffsetBegin=37 CharacterOffsetEnd=47 PartOfSpeech=NNP Lemma=California NamedEntityTag=LOCATION] [Text=. CharacterOffsetBegin=47 CharacterOffsetEnd=48 PartOfSpeech=. Lemma=. NamedEntityTag=O] 
(ROOT
  (S (# #)
    (X (SYM *))
    (NP (NNP Stanford) (NNP #University))
    (VP (VBZ is)
      (ADJP (JJ located)
        (PP (IN in)
          (NP (NNP California)))))
    (. .)))

root(ROOT-0, located-6)
dep(located-6, #-1)
dep(located-6, *-2)
nn(#University-4, Stanford-3)
nsubj(located-6, #University-4)
cop(located-6, is-5)
prep_in(located-6, California-8)

Sentence #2 (10 tokens):
It is a great university, founded in 1891.
[Text=It CharacterOffsetBegin=49 CharacterOffsetEnd=51 PartOfSpeech=PRP Lemma=it NamedEntityTag=O] [Text=is CharacterOffsetBegin=52 CharacterOffsetEnd=54 PartOfSpeech=VBZ Lemma=be NamedEntityTag=O] [Text=a CharacterOffsetBegin=55 CharacterOffsetEnd=56 PartOfSpeech=DT Lemma=a NamedEntityTag=O] [Text=great CharacterOffsetBegin=57 CharacterOffsetEnd=62 PartOfSpeech=JJ Lemma=great NamedEntityTag=O] [Text=university CharacterOffsetBegin=63 CharacterOffsetEnd=73 PartOfSpeech=NN Lemma=university NamedEntityTag=O] [Text=, CharacterOffsetBegin=73 CharacterOffsetEnd=74 PartOfSpeech=, Lemma=, NamedEntityTag=O] [Text=founded CharacterOffsetBegin=75 CharacterOffsetEnd=82 PartOfSpeech=VBN Lemma=found NamedEntityTag=O] [Text=in CharacterOffsetBegin=83 CharacterOffsetEnd=85 PartOfSpeech=IN Lemma=in NamedEntityTag=O] [Text=1891 CharacterOffsetBegin=86 CharacterOffsetEnd=90 PartOfSpeech=CD Lemma=1891 NamedEntityTag=DATE NormalizedNamedEntityTag=1891 Timex=<TIMEX3 tid="t1" type="DATE" value="1891">1891</TIMEX3>] [Text=. CharacterOffsetBegin=90 CharacterOffsetEnd=91 PartOfSpeech=. Lemma=. NamedEntityTag=O] 
(ROOT
  (S
    (NP (PRP It))
    (VP (VBZ is)
      (NP
        (NP (DT a) (JJ great) (NN university))
        (, ,)
        (VP (VBN founded)
          (PP (IN in)
            (NP (CD 1891))))))
    (. .)))

root(ROOT-0, university-5)
nsubj(university-5, It-1)
cop(university-5, is-2)
det(university-5, a-3)
amod(university-5, great-4)
vmod(university-5, founded-7)
prep_in(founded-7, 1891-9)

Sentence #3 (8 tokens):
I will be 15 minutes late today.
[Text=I CharacterOffsetBegin=92 CharacterOffsetEnd=93 PartOfSpeech=PRP Lemma=I NamedEntityTag=O] [Text=will CharacterOffsetBegin=94 CharacterOffsetEnd=98 PartOfSpeech=MD Lemma=will NamedEntityTag=O] [Text=be CharacterOffsetBegin=99 CharacterOffsetEnd=101 PartOfSpeech=VB Lemma=be NamedEntityTag=O] [Text=15 CharacterOffsetBegin=102 CharacterOffsetEnd=104 PartOfSpeech=CD Lemma=15 NamedEntityTag=DATE NormalizedNamedEntityTag=THIS P1D INTERSECT PT15M Timex=<TIMEX3 alt_value="THIS P1D INTERSECT PT15M" anchorTimeID="t3" temporalFunction="true" tid="t2" type="DATE" valueFromFunction="tf0">15 minutes late today</TIMEX3>] [Text=minutes CharacterOffsetBegin=105 CharacterOffsetEnd=112 PartOfSpeech=NNS Lemma=minute NamedEntityTag=DATE NormalizedNamedEntityTag=THIS P1D INTERSECT PT15M Timex=<TIMEX3 alt_value="THIS P1D INTERSECT PT15M" anchorTimeID="t3" temporalFunction="true" tid="t2" type="DATE" valueFromFunction="tf0">15 minutes late today</TIMEX3>] [Text=late CharacterOffsetBegin=113 CharacterOffsetEnd=117 PartOfSpeech=JJ Lemma=late NamedEntityTag=DATE NormalizedNamedEntityTag=THIS P1D INTERSECT PT15M Timex=<TIMEX3 alt_value="THIS P1D INTERSECT PT15M" anchorTimeID="t3" temporalFunction="true" tid="t2" type="DATE" valueFromFunction="tf0">15 minutes late today</TIMEX3>] [Text=today CharacterOffsetBegin=118 CharacterOffsetEnd=123 PartOfSpeech=NN Lemma=today NamedEntityTag=DATE NormalizedNamedEntityTag=THIS P1D INTERSECT PT15M Timex=<TIMEX3 alt_value="THIS P1D INTERSECT PT15M" anchorTimeID="t3" temporalFunction="true" tid="t2" type="DATE" valueFromFunction="tf0">15 minutes late today</TIMEX3>] [Text=. CharacterOffsetBegin=123 CharacterOffsetEnd=124 PartOfSpeech=. Lemma=. NamedEntityTag=O] 
(ROOT
  (S
    (NP (PRP I))
    (VP (MD will)
      (VP (VB be)
        (NP (CD 15) (NNS minutes))
        (NP-TMP (JJ late) (NN today))))
    (. .)))

root(ROOT-0, minutes-5)
nsubj(minutes-5, I-1)
aux(minutes-5, will-2)
cop(minutes-5, be-3)
num(minutes-5, 15-4)
amod(today-7, late-6)
tmod(minutes-5, today-7)

Coreference set:
	(2,1,[1,2]) -> (1,4,[3,5]), that is: "It" -> "Stanford #University"
	(2,5,[3,10]) -> (1,4,[3,5]), that is: "a great university , founded in 1891" -> "Stanford #University"
	(2,5,[3,6]) -> (1,4,[3,5]), that is: "a great university" -> "Stanford #University"
